%YAML 1.1
%TAG !u! tag:unity3d.com,2011:
--- !u!114 &11400000
MonoBehaviour:
  m_ObjectHideFlags: 0
  m_CorrespondingSourceObject: {fileID: 0}
  m_PrefabInstance: {fileID: 0}
  m_PrefabAsset: {fileID: 0}
  m_GameObject: {fileID: 0}
  m_Enabled: 1
  m_EditorHideFlags: 0
  m_Script: {fileID: 11500000, guid: 0745e9740e531444fa54eb79a50357f2, type: 3}
  m_Name: CsvTest
  m_EditorClassIdentifier: 
  spreadsheetId: 1q1jLGxZduiJN79Oj5k8SaEWg4-qHdFoffvFueOyIW-E
  data: []
